Tidy Talk
…
## Parsed with column specification:
## cols(
##   peptide = col_character(),
##   label_chr = col_character(),
##   label_num = col_integer(),
##   data_type = col_character()
## )

Read a file from the web

See the file content, which is now a tibble

pep_dat

## # A tibble: 23,760 x 4
##      peptide label_chr label_num data_type
##        <chr>     <chr>     <int>     <chr>
##  1 LLTDAQRIV        WB         1     train
##  2 LMAFYLYEV        SB         2     train
##  3 VMSPITLPT        WB         1      test
##  4 SLHLTNCFV        WB         1     train
##  5 RQFTCMIAV        WB         1     train
##  6 HQRLAPTMP        NB         0     train
##  7 FMNGHTHIA        SB         2     train
##  8 KINPYFSGA        WB         1     train
##  9 WLLIFHHCP        NB         0     train
## 10 NIWLAIIEL        WB         1     train
## # ... with 23,750 more rows
…
Basic tibble operations

Filter rows

pep_dat %>% filter(label_chr == 'SB')

## # A tibble: 7,920 x 4
##      peptide label_chr label_num data_type
##        <chr>     <chr>     <int>     <chr>
##  1 LMAFYLYEV        SB         2     train
##  2 FMNGHTHIA        SB         2     train
##  3 VLNGYSWFA        SB         2     train
##  4 WIWGIQYLL        SB         2     train
##  5 SLTHVPCYV        SB         2     train
##  6 NLWDATMKT        SB         2     train
##  7 SMNNSHYMV        SB         2     train
##  8 IIADHDYYM        SB         2     train
##  9 MLPPWGACV        SB         2     train
## 10 QLVAENEEV        SB         2     train
## # ... with 7,910 more rows

Filter columns

pep_dat %>% select(peptide,label_chr,label_num)

## # A tibble: 23,760 x 3
##      peptide label_chr label_num
##        <chr>     <chr>     <int>
##  1 LLTDAQRIV        WB         1
##  2 LMAFYLYEV        SB         2
##  3 VMSPITLPT        WB         1
##  4 SLHLTNCFV        WB         1
##  5 RQFTCMIAV        WB         1
##  6 HQRLAPTMP        NB         0
##  7 FMNGHTHIA        SB         2
##  8 KINPYFSGA        WB         1
##  9 WLLIFHHCP        NB         0
## 10 NIWLAIIEL        WB         1
## # ... with 23,750 more rows

Remove rows containing NA

pep_dat %>% filter(complete.cases(.))

## # A tibble: 23,760 x 4
##      peptide label_chr label_num data_type
##        <chr>     <chr>     <int>     <chr>
##  1 LLTDAQRIV        WB         1     train
##  2 LMAFYLYEV        SB         2     train
##  3 VMSPITLPT        WB         1      test
##  4 SLHLTNCFV        WB         1     train
##  5 RQFTCMIAV        WB         1     train
##  6 HQRLAPTMP        NB         0     train
##  7 FMNGHTHIA        SB         2     train
##  8 KINPYFSGA        WB         1     train
##  9 WLLIFHHCP        NB         0     train
## 10 NIWLAIIEL        WB         1     train
## # ... with 23,750 more rows

Create new variables

pep_dat %>% mutate(kmer = peptide %>% str_sub(start = 1, end = 3))

## # A tibble: 23,760 x 5
##      peptide label_chr label_num data_type  kmer
##        <chr>     <chr>     <int>     <chr> <chr>
##  1 LLTDAQRIV        WB         1     train   LLT
##  2 LMAFYLYEV        SB         2     train   LMA
##  3 VMSPITLPT        WB         1      test   VMS
##  4 SLHLTNCFV        WB         1     train   SLH
##  5 RQFTCMIAV        WB         1     train   RQF
##  6 HQRLAPTMP        NB         0     train   HQR
##  7 FMNGHTHIA        SB         2     train   FMN
##  8 KINPYFSGA        WB         1     train   KIN
##  9 WLLIFHHCP        NB         0     train   WLL
## 10 NIWLAIIEL        WB         1     train   NIW
## # ... with 23,750 more rows

Rename variables

pep_dat %>% rename(partition = data_type)

## # A tibble: 23,760 x 4
##      peptide label_chr label_num partition
##        <chr>     <chr>     <int>     <chr>
##  1 LLTDAQRIV        WB         1     train
##  2 LMAFYLYEV        SB         2     train
##  3 VMSPITLPT        WB         1      test
##  4 SLHLTNCFV        WB         1     train
##  5 RQFTCMIAV        WB         1     train
##  6 HQRLAPTMP        NB         0     train
##  7 FMNGHTHIA        SB         2     train
##  8 KINPYFSGA        WB         1     train
##  9 WLLIFHHCP        NB         0     train
## 10 NIWLAIIEL        WB         1     train
## # ... with 23,750 more rows
…
